{
  "data": [
    { "dpi": 1111111110101, "partido": 1},
    { "dpi": 1111111110102, "partido": 2},
    { "dpi": 1111111120102, "partido": 2},
    { "dpi": 1111111110202, "partido": 3},
    { "dpi": 1111111120202, "partido": 4},
    { "dpi": 1111111130202, "partido": 5},
    { "dpi": 1111111110301, "partido": 6},
    { "dpi": 1111111120301, "partido": 7},
    { "dpi": 1111111110401, "partido": 2},
    { "dpi": 1111111112201, "partido": 7}
  ]
}
